…
To download the data for Kiel's weather in **2022**, run the following code:

``` r
download_weather_data(
    station_id = "100465-99999",
    year = 2022, 
    dir = "temp"
    )
```

To load the data, run the following code:

``` r
read_weather_data(file = list.files("temp", full.names = TRUE))
#> # A tibble: 17,114 x 10
#>    station_id   time                   wd    ws ceil_hgt visibility  temp dew_point atmos_pres    rh
#>    <chr>        <dttm>              <int> <dbl>    <int>      <int> <dbl>     <dbl>      <dbl> <dbl>
#>  1 100465-99999 2022-01-01 00:20:00   270   6.2      152       6000     9         9         NA 100  
#>  2 100465-99999 2022-01-01 00:50:00   280   6.2      122       3300     9         9         NA 100  
#>  3 100465-99999 2022-01-01 01:20:00   270   5.1      122       9999     9         9         NA 100  
#>  4 100465-99999 2022-01-01 01:50:00   260   5.1      183       9999     9         9         NA 100  
#>  5 100465-99999 2022-01-01 02:20:00   260   5.7      183       9999     9         9         NA 100  
#>  6 100465-99999 2022-01-01 02:50:00   260   5.1      183       9999     9         9         NA 100  
#>  7 100465-99999 2022-01-01 03:20:00   260   5.1      244       9999     9         9         NA 100  
#>  8 100465-99999 2022-01-01 03:50:00   270   6.2      244       9999     9         9         NA 100  
#>  9 100465-99999 2022-01-01 04:20:00   270   5.1      244       9999     9         8         NA  93.5
#> 10 100465-99999 2022-01-01 04:50:00   260   4.6      518       9999     9         8         NA  93.5
# … with 17,104 more rows
```
